\BOOKMARK [1][-]{section.1}{Instrukcja obs\233ugi}{}% 1
\BOOKMARK [2][-]{subsection.1.1}{Rysowanie wielokat\363w}{section.1}% 2
\BOOKMARK [2][-]{subsection.1.2}{Przesuwanie wierzcho\233k\363w wielokata}{section.1}% 3
\BOOKMARK [2][-]{subsection.1.3}{Przesuwanie wielokata}{section.1}% 4
\BOOKMARK [2][-]{subsection.1.4}{Usuwanie wierzcho\233ka}{section.1}% 5
\BOOKMARK [2][-]{subsection.1.5}{Usuwanie wielokata}{section.1}% 6
\BOOKMARK [2][-]{subsection.1.6}{Dodawanie wierzcho\233ka na srodku krawedzi}{section.1}% 7
\BOOKMARK [2][-]{subsection.1.7}{Opcje wype\233niania}{section.1}% 8
\BOOKMARK [3][-]{subsubsection.1.7.1}{Zmiana t\233a wielokat\363w}{subsection.1.7}% 9
\BOOKMARK [3][-]{subsubsection.1.7.2}{Wczytywanie mapy wysokosci \(height map\)}{subsection.1.7}% 10
\BOOKMARK [3][-]{subsubsection.1.7.3}{Zmiana koloru oswietlenia}{subsection.1.7}% 11
\BOOKMARK [3][-]{subsubsection.1.7.4}{Oswietlenie w nieskonczonosci i punktowe}{subsection.1.7}% 12
\BOOKMARK [3][-]{subsubsection.1.7.5}{Zmiana funkcji}{subsection.1.7}% 13
\BOOKMARK [3][-]{subsubsection.1.7.6}{Zmiana pozycji swiat\233a}{subsection.1.7}% 14
\BOOKMARK [2][-]{subsection.1.8}{Znajdowanie czesci wsp\363lnej wielokat\363w}{section.1}% 15
